<?xml version="1.0" encoding="UTF-8" standalone="no"?>
<svg
   width="83px"
   height="25px"
   viewBox="0 0 83 25"
   version="1.1"
   id="svg21"
   sodipodi:docname="orange-logo-dark.svg"
   inkscape:version="1.1.1 (3bf5ae0d25, 2021-09-20)"
   inkscape:export-filename="C:\Users\Compold\Documents\Web\web\assets\images\favicon.png"
   inkscape:export-xdpi="201.09"
   inkscape:export-ydpi="201.09"
   xmlns:inkscape="http://www.inkscape.org/namespaces/inkscape"
   xmlns:sodipodi="http://sodipodi.sourceforge.net/DTD/sodipodi-0.dtd"
   xmlns="http://www.w3.org/2000/svg"
   xmlns:svg="http://www.w3.org/2000/svg"
   xmlns:rdf="http://www.w3.org/1999/02/22-rdf-syntax-ns#"
   xmlns:cc="http://creativecommons.org/ns#"
   xmlns:dc="http://purl.org/dc/elements/1.1/">
  <sodipodi:namedview
     id="namedview23"
     pagecolor="#ffffff"
     bordercolor="#666666"
     borderopacity="1.0"
     inkscape:pageshadow="2"
     inkscape:pageopacity="0.0"
     inkscape:pagecheckerboard="0"
     showgrid="false"
     inkscape:zoom="4.3929009"
     inkscape:cx="36.763862"
     inkscape:cy="17.414461"
     inkscape:window-width="1360"
     inkscape:window-height="705"
     inkscape:window-x="-8"
     inkscape:window-y="-8"
     inkscape:window-maximized="1"
     inkscape:current-layer="Group-8-Copy-4"
     width="160px" />
  <!-- Generator: Sketch 52.4 (67378) - http://www.bohemiancoding.com/sketch -->
  <title
     id="title2">Group 8 Copy 4</title>
  <desc
     id="desc4">Created with Sketch.</desc>
  <defs
     id="defs11">
    <linearGradient
       x1="0.55714287"
       y1="0.95263414"
       x2="19.626563"
       y2="19.232955"
       id="linearGradient-1"
       gradientUnits="userSpaceOnUse"
       gradientTransform="translate(2.2996159,0.51216391)">
      <stop
         stop-color="#FA5B86"
         offset="0%"
         id="stop6" />
      <stop
         stop-color="#FB9A86"
         offset="100%"
         id="stop8" />
    </linearGradient>
  </defs>
  <g
     id="Design"
     stroke="none"
     stroke-width="1"
     fill="none"
     fill-rule="evenodd">
    <g
       id="Group-8-Copy-4"
       transform="translate(0.1966,0.07845)">
      <rect
         id="Rectangle"
         fill="url(#linearGradient-1)"
         opacity="0.38"
         x="2.2996159"
         y="0.51216388"
         width="20"
         height="20"
         rx="4"
         style="fill:url(#linearGradient-1);fill-rule:nonzero" />
      <rect
         id="rect15"
         fill="#fa7286"
         x="5.4250965"
         y="3.8501916"
         width="20"
         height="20"
         rx="4"
         style="fill:#ff5555;fill-rule:nonzero" />
      <g
         id="g40368"
         style="fill:#d7f4e3"
         transform="translate(2.4250959,1.4878359)">
        <text
           xml:space="preserve"
           style="font-style:normal;font-variant:normal;font-weight:normal;font-stretch:normal;font-size:16.0383px;line-height:1.25;font-family:'Colonna MT';-inkscape-font-specification:'Colonna MT';fill:#d7f4e3;fill-opacity:1;stroke:none;stroke-width:0.400959"
           x="7.6503658"
           y="12.358861"
           id="text6055"><tspan
             sodipodi:role="line"
             id="tspan6053"
             x="7.6503658"
             y="12.358861"
             style="font-style:normal;font-variant:normal;font-weight:normal;font-stretch:normal;font-family:'Colonna MT';-inkscape-font-specification:'Colonna MT';fill:#d7f4e3;stroke-width:0.400959">O </tspan><tspan
             sodipodi:role="line"
             x="7.6503658"
             y="32.406734"
             style="font-style:normal;font-variant:normal;font-weight:normal;font-stretch:normal;font-family:'Colonna MT';-inkscape-font-specification:'Colonna MT';fill:#d7f4e3;stroke-width:0.400959"
             id="tspan9345" /></text>
        <text
           xml:space="preserve"
           style="font-style:normal;font-variant:normal;font-weight:normal;font-stretch:normal;font-size:19.6141px;line-height:1.25;font-family:'Colonna MT';-inkscape-font-specification:'Colonna MT';fill:#d7f4e3;fill-opacity:1;stroke:none;stroke-width:0.490352"
           x="5.1242032"
           y="20.15584"
           id="text18249"><tspan
             sodipodi:role="line"
             id="tspan18247"
             x="5.1242032"
             y="20.15584"
             style="fill:#d7f4e3;stroke-width:0.490352">m</tspan></text>
      </g>
      <ellipse
         id="path36941"
         cx="27.600208"
         cy="-8.0440397"
         rx="2.6301475"
         ry="1.6532356" />
      <ellipse
         id="path36943"
         cx="27.825649"
         cy="-10.749334"
         rx="0.15029414"
         ry="0.30058828" />
      <text
         xml:space="preserve"
         style="font-style:normal;font-variant:normal;font-weight:normal;font-stretch:normal;font-size:20.4198px;line-height:1.25;font-family:'Brush Script MT';-inkscape-font-specification:'Brush Script MT';fill:#000000;fill-opacity:1;stroke:none;stroke-width:0.510494"
         x="27.048428"
         y="18.853687"
         id="text40087"
         transform="scale(1.0654126,0.9386035)"><tspan
           sodipodi:role="line"
           id="tspan40085"
           x="27.048428"
           y="18.853687"
           style="font-style:normal;font-variant:normal;font-weight:normal;font-stretch:normal;font-family:'Brush Script MT';-inkscape-font-specification:'Brush Script MT';stroke-width:0.510494">Pulsa</tspan></text>
    </g>
  </g>
  <metadata
     id="metadata82">
    <rdf:RDF>
      <cc:Work
         rdf:about="">
        <dc:title>Group 8 Copy 4</dc:title>
      </cc:Work>
    </rdf:RDF>
  </metadata>
</svg>
